{
  "info": {
    "_postman_id": "0ccb93f6-a5b4-432a-929e-bd38f001bf14",
    "name": "# sandbox",
    "schema": "https://schema.getpostman.com/json/collection/v2.0.0/collection.json"
  },
  "item": [
    {
      "name": "pokemon",
      "item": [
        {
          "name": "fetch pokemon",
          "id": "e3a41857-3d12-4e73-be2f-a3bbeb80389b",
          "protocolProfileBehavior": {
            "disableBodyPruning": true
          },
          "request": {
            "method": "GET",
            "header": [],
            "url": "http://127.0.0.1:3000/pokemon/pikachu"
          },
          "response": []
        },
        {
          "name": "get chache pokemon",
          "id": "10e6e92d-aaae-4863-b0fe-05e0707b76cb",
          "protocolProfileBehavior": {
            "disableBodyPruning": true
          },
          "request": {
            "method": "GET",
            "header": [],
            "url": "http://127.0.0.1:3000/pokemon/cache/pikachu"
          },
          "response": []
        }
      ],
      "id": "182d3516-97e9-49b7-9b06-a891bd61931f"
    },
    {
      "name": "hexagon",
      "item": [
        {
          "name": "get-books",
          "id": "3c6be5c5-e70e-4b55-a9c2-292f1642a214",
          "protocolProfileBehavior": {
            "disableBodyPruning": true
          },
          "request": {
            "method": "GET",
            "header": [],
            "url": "http://127.0.0.1:3000/books"
          },
          "response": []
        },
        {
          "name": "get-book-editions",
          "id": "674f0d63-fdcf-4b0f-80c0-9b12791908ef",
          "protocolProfileBehavior": {
            "disableBodyPruning": true
          },
          "request": {
            "method": "GET",
            "header": [],
            "url": "http://127.0.0.1:3000/books/1/editions"
          },
          "response": []
        },
        {
          "name": "post-book-edition",
          "id": "b9a44e18-431b-415b-9bad-d82742b79d51",
          "protocolProfileBehavior": {
            "disableBodyPruning": true
          },
          "request": {
            "method": "POST",
            "header": [],
            "body": {
              "mode": "raw",
              "raw": "{\n    \"name\": \"2nd edition\",\n    \"publisher\": \"yellow\"\n}",
              "options": {
                "raw": {
                  "language": "json"
                }
              }
            },
            "url": "http://127.0.0.1:3000/books/3/editions"
          },
          "response": []
        }
      ],
      "id": "bad3b1f1-851e-4f5d-a171-9cebf51c7cf1"
    },
    {
      "name": "cdc-quickstart",
      "item": [
        {
          "name": "debe-feed",
          "id": "7e178c4c-f112-4865-a545-8c31cc5fc80b",
          "protocolProfileBehavior": {
            "disableBodyPruning": true
          },
          "request": {
            "method": "POST",
            "header": [
              {
                "key": "Content-Type",
                "value": "application/json",
                "type": "text"
              },
              {
                "key": "Accept",
                "value": "application/json",
                "type": "text"
              }
            ],
            "body": {
              "mode": "raw",
              "raw": "{\n    \"name\": \"mysql-school-connector\",\n    \"config\": {\n        \"connector.class\": \"io.debezium.connector.mysql.MySqlConnector\",\n        \"tasks.max\": \"1\",\n        \"database.hostname\": \"mysql\",\n        \"database.port\": \"3307\",\n        \"database.user\": \"root\",\n        \"database.password\": \"1234\",\n        \"database.server.id\": \"1\",\n        \"topic.prefix\": \"mysql-server\",\n        \"database.include.list\": \"school\",\n        \"schema.history.internal.kafka.bootstrap.servers\": \"kafka1:9092,kafka2:9092\",\n        \"schema.history.internal.kafka.topic\": \"schema-changes.school\"\n    }\n}",
              "options": {
                "raw": {
                  "language": "json"
                }
              }
            },
            "url": "http://localhost:8083/connectors"
          },
          "response": []
        },
        {
          "name": "New Request",
          "id": "ad83515e-e41e-4694-8756-1b1a6af5626c",
          "protocolProfileBehavior": {
            "disableBodyPruning": true
          },
          "request": {
            "method": "POST",
            "header": [
              {
                "key": "Content-Type",
                "value": "application/json",
                "type": "text"
              }
            ],
            "body": {
              "mode": "raw",
              "raw": "{\n    \"name\": \"mysql-school-connector\",\n    \"config\": {\n        \"connector.class\": \"io.debezium.connector.mysql.MySqlConnector\",\n        \"tasks.max\": \"1\",\n        \"database.hostname\": \"mysql\",\n        \"database.port\": \"3307\",\n        \"database.user\": \"root\",\n        \"database.password\": \"1234\",\n        \"database.server.id\": \"1\",\n        \"topic.prefix\": \"mysql-server\",\n        \"database.include.list\": \"school\",\n        \"schema.history.internal.kafka.bootstrap.servers\": \"kafka1:9092,kafka2:9092\",\n        \"schema.history.internal.kafka.topic\": \"schema-changes.school\"\n    }\n}",
              "options": {
                "raw": {
                  "language": "json"
                }
              }
            },
            "url": "http://localhost:8083/connectors"
          },
          "response": []
        },
        {
          "name": "New Request Copy",
          "id": "13d2b42c-4fca-45d2-b00d-e2a5a02a9d9b",
          "protocolProfileBehavior": {
            "disableBodyPruning": true
          },
          "request": {
            "method": "POST",
            "header": [
              {
                "key": "Accept",
                "value": "application/json",
                "type": "text"
              },
              {
                "key": "Content-Type",
                "value": "application/json",
                "type": "text"
              }
            ],
            "body": {
              "mode": "raw",
              "raw": "{\n    \"name\": \"mysql-school-connector\",\n    \"config\": {\n        \"connector.class\": \"io.debezium.connector.mysql.MySqlConnector\",\n        \"tasks.max\": \"1\",\n        \"database.hostname\": \"mysql\",\n        \"database.port\": \"3306\",\n        \"database.user\": \"root\",\n        \"database.password\": \"12345678\",\n        \"database.server.id\": \"1769394\",\n        \"topic.prefix\": \"mysql-server\",\n        \"database.include.list\": \"school\",\n        \"schema.history.internal.kafka.bootstrap.servers\": \"kafka1:9092,kafka2:9092,kafka3:9092\",\n        \"schema.history.internal.kafka.topic\": \"schema-changes.school\"\n    }\n}",
              "options": {
                "raw": {
                  "language": "json"
                }
              }
            },
            "url": "http://localhost:8083/connectors"
          },
          "response": []
        }
      ],
      "id": "b6248b59-53e7-460a-bd92-0faab0aa52bb"
    },
    {
      "name": "cdc-sandbox",
      "item": [
        {
          "name": "lab-1",
          "item": [
            {
              "name": "check-connector-plugins",
              "id": "2d41f857-c4fd-4260-ad7a-7b97ef011c8a",
              "protocolProfileBehavior": {
                "disableBodyPruning": true
              },
              "request": {
                "method": "GET",
                "header": [],
                "url": "http://localhost:8083/connector-plugins"
              },
              "response": []
            },
            {
              "name": "add-connector-config",
              "id": "2a9948c7-3903-4534-a8e8-8e1890f91e24",
              "protocolProfileBehavior": {
                "disableBodyPruning": true
              },
              "request": {
                "method": "POST",
                "header": [
                  {
                    "key": "Content-Type",
                    "value": "application/json",
                    "type": "text"
                  }
                ],
                "body": {
                  "mode": "raw",
                  "raw": "{ \"name\": \"jdbc-source-connector\", \n  \"config\": \n    {\"connector.class\": \"JdbcSource\", \n     \"tasks.max\": 1,\n     \"topic.prefix\": \"connect-jdbc-1-\",\n     \"connection.url\": \"jdbc:postgresql://postgres:5432/shop\",\n     \"mode\": \"incrementing\", \n     \"incrementing.column.name\":\"id\",\n     \"value.converter\": \"org.apache.kafka.connect.json.JsonConverter\",\n     \"value.converter.schemas.enable\":\"true\", \n     \"table.whitelist\" : \"public.products\",\n     \"connection.user\": \"demo\", \n     \"connection.password\" : \"demo\"\n    }\n}    "
                },
                "url": "http://localhost:8083/connectors"
              },
              "response": []
            },
            {
              "name": "check-connector-status",
              "id": "f6df8688-f0e6-4db3-993c-86bd58c2bd2f",
              "protocolProfileBehavior": {
                "disableBodyPruning": true
              },
              "request": {
                "method": "GET",
                "header": [],
                "url": "http://localhost:8083/connectors/jdbc-source-connector/status"
              },
              "response": []
            }
          ],
          "id": "789cca87-6f97-490a-b479-76f72a64cd6e"
        },
        {
          "name": "lab-2",
          "item": [
            {
              "name": "add-connector-config-2",
              "id": "dbacc958-f36f-4400-a912-dc908ac0b806",
              "protocolProfileBehavior": {
                "disableBodyPruning": true
              },
              "request": {
                "method": "POST",
                "header": [
                  {
                    "key": "Content-Type",
                    "value": "application/json",
                    "type": "text"
                  }
                ],
                "body": {
                  "mode": "raw",
                  "raw": "{ \"name\": \"jdbc-source-connector-2\", \n  \"config\": \n    {\"connector.class\": \"JdbcSource\", \n     \"tasks.max\": 1,\n     \"topic.prefix\": \"connect-jdbc-2-\",\n     \"connection.url\": \"jdbc:postgresql://postgres:5432/shop\",\n     \"mode\": \"incrementing\", \n     \"incrementing.column.name\":\"id\",\n     \"value.converter\": \"org.apache.kafka.connect.json.JsonConverter\",\n     \"value.converter.schemas.enable\":\"true\", \n     \"table.whitelist\" : \"public.products\",\n     \"connection.user\": \"demo\", \n     \"connection.password\" : \"demo\",\n     \"transforms\" : \"createKey,extractInt,RenameField\",\n     \"transforms.createKey.type\":\"org.apache.kafka.connect.transforms.ValueToKey\",\n     \"transforms.createKey.fields\":\"id\",\n     \"transforms.extractInt.type\":\"org.apache.kafka.connect.transforms.ExtractField$Key\",\n     \"transforms.extractInt.field\":\"id\",\n     \"transforms.RenameField.type\" : \"org.apache.kafka.connect.transforms.ReplaceField$Value\",\n     \"transforms.RenameField.renames\" : \"name:code\"\n    }\n}"
                },
                "url": "http://localhost:8083/connectors"
              },
              "response": []
            },
            {
              "name": "pause-connector",
              "id": "361ce51a-c9d4-487c-b234-95e6640a7a65",
              "protocolProfileBehavior": {
                "disableBodyPruning": true
              },
              "request": {
                "method": "PUT",
                "header": [],
                "url": "localhost:8083/connectors/jdbc-source-connector/pause"
              },
              "response": []
            },
            {
              "name": "check-connector-status",
              "id": "8c757106-37cd-44ea-b022-106d64088b02",
              "protocolProfileBehavior": {
                "disableBodyPruning": true
              },
              "request": {
                "method": "GET",
                "header": [],
                "url": "localhost:8083/connectors/jdbc-source-connector/status"
              },
              "response": []
            },
            {
              "name": "resume-connector",
              "id": "db3a5ecd-7144-4c80-81ed-7b326b541d38",
              "protocolProfileBehavior": {
                "disableBodyPruning": true
              },
              "request": {
                "method": "PUT",
                "header": [],
                "url": "localhost:8083/connectors/jdbc-source-connector/resume"
              },
              "response": []
            }
          ],
          "id": "fb947036-c29d-432b-a4f3-a2650cf7a88e"
        },
        {
          "name": "lab-3",
          "item": [
            {
              "name": "add-connector-config-sink-1",
              "id": "c83c02d5-6e1c-4a3b-9002-d1d47cb1057b",
              "protocolProfileBehavior": {
                "disableBodyPruning": true
              },
              "request": {
                "method": "POST",
                "header": [
                  {
                    "key": "Content-Type",
                    "value": "application/json",
                    "type": "text"
                  }
                ],
                "body": {
                  "mode": "raw",
                  "raw": "{\n  \"name\": \"jdbc-sink-connector\",\n  \"config\": {\n    \"connector.class\": \"io.confluent.connect.jdbc.JdbcSinkConnector\",\n    \"tasks.max\": \"1\",\n    \"topics\": \"customers\",\n    \"connection.url\": \"jdbc:postgresql://postgres:5432/shop\",\n    \"connection.user\": \"demo\",\n    \"connection.password\": \"demo\",\n    \"connection.ds.pool.size\": 5,\n    \"auto.create\": \"true\",\n    \"insert.mode.databaselevel\": true,\n    \"value.converter\": \"io.confluent.connect.avro.AvroConverter\",\n    \"value.converter.schema.registry.url\": \"http://schema-registry:8081\"\n    \n  }\n}"
                },
                "url": "http://localhost:8083/connectors"
              },
              "response": []
            }
          ],
          "id": "33e4a5b8-36cf-4fc5-9ea0-ae5e7892411a"
        },
        {
          "name": "lab-4",
          "item": [
            {
              "name": "New Request",
              "id": "a1c0ddcc-9e34-442b-a34e-0e63bb3b6af7",
              "protocolProfileBehavior": {
                "disableBodyPruning": true
              },
              "request": {
                "method": "POST",
                "header": [
                  {
                    "key": "Content-Type",
                    "value": "application/json",
                    "type": "text"
                  }
                ],
                "body": {
                  "mode": "raw",
                  "raw": "{\n  \"name\": \"jdbc-sink-connector-2\",\n  \"config\": {\n    \"connector.class\": \"io.confluent.connect.jdbc.JdbcSinkConnector\",\n    \"tasks.max\": \"1\",\n    \"topics\": \"customers-with-key\",\n    \"connection.url\": \"jdbc:postgresql://postgres:5432/shop\",\n    \"connection.user\": \"demo\",\n    \"connection.password\": \"demo\",\n    \"connection.ds.pool.size\": 5,\n    \"auto.create\": \"true\",\n    \"insert.mode.databaselevel\": true,\n    \"value.converter\": \"io.confluent.connect.avro.AvroConverter\",\n    \"value.converter.schema.registry.url\": \"http://schema-registry:8081\",\n    \"pk.mode\" : \"record_value\",\n    \"pk.fields\": \"id\"\n    \n  }\n}"
                },
                "url": "http://localhost:8083/connectors"
              },
              "response": []
            }
          ],
          "id": "672ef42c-1013-4044-b1c7-76f003ccd308"
        }
      ],
      "id": "64f5fe8e-7875-48c4-aac2-5414394189df"
    },
    {
      "name": "inference-item-substitution",
      "item": [
        {
          "name": "search-many",
          "id": "f78561e7-2620-40f6-9745-32b8259b235f",
          "protocolProfileBehavior": {
            "disableBodyPruning": true
          },
          "request": {
            "method": "POST",
            "header": [
              {
                "key": "queries",
                "value": "0700162,0600473,0100047",
                "type": "text",
                "disabled": true
              }
            ],
            "body": {
              "mode": "raw",
              "raw": "{\n  \"queries\": [\n    \"0600628\",\n    \"0700071\",\n    \"0700159\"\n  ]\n}",
              "options": {
                "raw": {
                  "language": "json"
                }
              }
            },
            "url": {
              "raw": "https://inf-item-substitution-sit.7-11.io/iis-api/v1/search/many",
              "protocol": "https",
              "host": [
                "inf-item-substitution-sit",
                "7-11",
                "io"
              ],
              "path": [
                "iis-api",
                "v1",
                "search",
                "many"
              ],
              "query": [
                {
                  "key": "",
                  "value": "",
                  "disabled": true
                },
                {
                  "key": "",
                  "value": "",
                  "type": "text",
                  "disabled": true
                }
              ]
            }
          },
          "response": []
        },
        {
          "name": "search-many",
          "id": "7a24c993-8a1e-49bb-9e99-05261dfbbf19",
          "protocolProfileBehavior": {
            "disableBodyPruning": true
          },
          "request": {
            "method": "GET",
            "header": [
              {
                "key": "queries",
                "value": "0700162,0600473,0100047",
                "type": "text"
              }
            ],
            "url": "https://inf-item-substitution-sit.7-11.io/iis-api/v1/search/many"
          },
          "response": []
        },
        {
          "name": "search-many Copy",
          "id": "1c6bdcb3-548a-46f0-981a-f110fcce25f2",
          "protocolProfileBehavior": {
            "disableBodyPruning": true
          },
          "request": {
            "method": "GET",
            "header": [
              {
                "key": "queries",
                "value": "0700162,0600473,0100047",
                "type": "text"
              }
            ],
            "url": "https://inf-item-substitution-sit.7-11.io/iis-api/v1/search/many"
          },
          "response": []
        },
        {
          "name": "search-one",
          "id": "35abcd8f-ee82-47c5-9175-5df738dbdfb8",
          "protocolProfileBehavior": {
            "disableBodyPruning": true
          },
          "request": {
            "method": "GET",
            "header": [],
            "url": {
              "raw": "https://inf-item-substitution-sit.7-11.io/iis-api/v1/search/one?query=0600628",
              "protocol": "https",
              "host": [
                "inf-item-substitution-sit",
                "7-11",
                "io"
              ],
              "path": [
                "iis-api",
                "v1",
                "search",
                "one"
              ],
              "query": [
                {
                  "key": "query",
                  "value": "0600628"
                }
              ]
            }
          },
          "response": []
        },
        {
          "name": "search-one [local]",
          "id": "f7787939-4127-409c-b3a8-56fd23046f60",
          "protocolProfileBehavior": {
            "disableBodyPruning": true
          },
          "request": {
            "auth": {
              "type": "basic",
              "basic": {
                "password": "testx",
                "username": "test"
              }
            },
            "method": "GET",
            "header": [],
            "url": {
              "raw": "localhost:8000/search/one?query=5501285&pageSize=5",
              "host": [
                "localhost"
              ],
              "port": "8000",
              "path": [
                "search",
                "one"
              ],
              "query": [
                {
                  "key": "query",
                  "value": "5501285"
                },
                {
                  "key": "pageSize",
                  "value": "5"
                }
              ]
            }
          },
          "response": []
        },
        {
          "name": "search-many [local]",
          "id": "0baf6e22-9aed-44e7-bc1d-b30d1a7e7f63",
          "protocolProfileBehavior": {
            "disableBodyPruning": true
          },
          "request": {
            "auth": {
              "type": "basic",
              "basic": {
                "password": "testx",
                "username": "test"
              }
            },
            "method": "GET",
            "header": [
              {
                "key": "queries",
                "value": "2400023,0100047,0600473",
                "type": "text"
              },
              {
                "key": "",
                "value": "",
                "type": "text",
                "disabled": true
              }
            ],
            "url": {
              "raw": "localhost:8000/search/many",
              "host": [
                "localhost"
              ],
              "port": "8000",
              "path": [
                "search",
                "many"
              ],
              "query": [
                {
                  "key": "pageSize",
                  "value": "5",
                  "disabled": true
                }
              ]
            }
          },
          "response": []
        },
        {
          "name": "search-many [local]",
          "id": "a64796c3-c00b-4538-9dba-1cba1f7561b2",
          "protocolProfileBehavior": {
            "disableBodyPruning": true
          },
          "request": {
            "auth": {
              "type": "basic",
              "basic": {
                "password": "testx",
                "username": "test"
              }
            },
            "method": "POST",
            "header": [
              {
                "key": "queries",
                "value": "0700162,0600473,0100047",
                "type": "text",
                "disabled": true
              }
            ],
            "body": {
              "mode": "raw",
              "raw": "{\n  \"pageSize\": 5,\n  \"queries\": [\n    \"0600628\",\n    \"0700071\",\n    \"0700159\",\n    \"0600525\"\n  ]\n}",
              "options": {
                "raw": {
                  "language": "json"
                }
              }
            },
            "url": {
              "raw": "localhost:8000/search/many",
              "host": [
                "localhost"
              ],
              "port": "8000",
              "path": [
                "search",
                "many"
              ],
              "query": [
                {
                  "key": "",
                  "value": "",
                  "disabled": true
                },
                {
                  "key": "",
                  "value": "",
                  "type": "text",
                  "disabled": true
                }
              ]
            }
          },
          "response": []
        },
        {
          "name": "product relate [local]",
          "id": "2a8fd3bc-63d7-4054-b33a-1f117f09b4ec",
          "protocolProfileBehavior": {
            "disableBodyPruning": true
          },
          "request": {
            "auth": {
              "type": "basic",
              "basic": {
                "password": "testx",
                "username": "test"
              }
            },
            "method": "GET",
            "header": [
              {
                "key": "X-User-Id",
                "value": "123456",
                "type": "text"
              },
              {
                "key": "",
                "value": "",
                "type": "text",
                "disabled": true
              }
            ],
            "url": {
              "raw": "localhost:8000/api/v1/relate?query=4105176&pageSize=5",
              "host": [
                "localhost"
              ],
              "port": "8000",
              "path": [
                "api",
                "v1",
                "relate"
              ],
              "query": [
                {
                  "key": "query",
                  "value": "4105176"
                },
                {
                  "key": "pageSize",
                  "value": "5"
                }
              ]
            }
          },
          "response": []
        },
        {
          "name": "product relate [local] ab-testing",
          "id": "d3c1cbb7-f341-4af8-83aa-ee3ee57bfe9a",
          "protocolProfileBehavior": {
            "disableBodyPruning": true
          },
          "request": {
            "auth": {
              "type": "basic",
              "basic": {
                "password": "testx",
                "username": "test"
              }
            },
            "method": "GET",
            "header": [
              {
                "key": "X-User-Id",
                "value": "user01",
                "type": "text"
              },
              {
                "key": "",
                "value": "",
                "type": "text",
                "disabled": true
              }
            ],
            "url": {
              "raw": "localhost:8080/api/v1/relate?query=4105176&page_size=5",
              "host": [
                "localhost"
              ],
              "port": "8080",
              "path": [
                "api",
                "v1",
                "relate"
              ],
              "query": [
                {
                  "key": "query",
                  "value": "4105176"
                },
                {
                  "key": "page_size",
                  "value": "5"
                }
              ]
            }
          },
          "response": []
        },
        {
          "name": "product relate [stg]",
          "id": "9f9316ae-1395-46e4-a156-dc1e6b71a5c2",
          "protocolProfileBehavior": {
            "disableBodyPruning": true
          },
          "request": {
            "auth": {
              "type": "basic",
              "basic": {
                "username": "item-sub1",
                "password": "2qsEka9Vt1"
              }
            },
            "method": "GET",
            "header": [
              {
                "key": "X-User-Id",
                "value": "123456",
                "type": "text",
                "disabled": true
              },
              {
                "key": "",
                "value": "",
                "type": "text",
                "disabled": true
              }
            ],
            "url": {
              "raw": "https://product-relate-sit.7-11.io/api/v1/relate?query=4105175&pageSize=10",
              "protocol": "https",
              "host": [
                "product-relate-sit",
                "7-11",
                "io"
              ],
              "path": [
                "api",
                "v1",
                "relate"
              ],
              "query": [
                {
                  "key": "query",
                  "value": "4105175"
                },
                {
                  "key": "pageSize",
                  "value": "10"
                }
              ]
            }
          },
          "response": []
        }
      ],
      "id": "ba1dad17-6cde-4e3f-8263-8cb084b9c833"
    },
    {
      "name": "itracker",
      "item": [
        {
          "name": "login",
          "id": "409e8b62-a526-4e4c-b6fb-de44d2f2c741",
          "protocolProfileBehavior": {
            "disableBodyPruning": true
          },
          "request": {
            "method": "POST",
            "header": [
              {
                "key": "Access-Control-Allow-Origin",
                "value": "*",
                "type": "text",
                "disabled": true
              },
              {
                "key": "Access-Control-Allow-credentials",
                "value": "true",
                "type": "text",
                "disabled": true
              },
              {
                "key": "Authorization",
                "value": "Bearer eyJhbGciOiJIUzI1NiIsInR5cCI6IkpXVCJ9.eyJmcmVzaCI6ZmFsc2UsImlhdCI6MTY5OTIzNjU5NywianRpIjoiMjZiNjcxNTktZmMzYi00MmIyLTg5ZWQtMThlMTI3MGJiZDA1IiwidHlwZSI6ImFjY2VzcyIsInN1YiI6eyJ1c2VybmFtZSI6InVzZXIxMSIsInJvbGUiOiJzYWxlIn0sIm5iZiI6MTY5OTIzNjU5NywiZXhwIjoxNjk5ODQxMzk3fQ.9ZXpi3QM6L-eBIr7hgzBn7P8RFbPsZxuv6-HEaTVEuY",
                "type": "text",
                "disabled": true
              },
              {
                "key": "Content-Type",
                "value": "application/json",
                "type": "text"
              }
            ],
            "body": {
              "mode": "raw",
              "raw": "{\n\"username\":\"user11\",\n\"password\":\"4444\"\n}",
              "options": {
                "raw": {
                  "language": "json"
                }
              }
            },
            "url": "https://itracker-api.onrender.com/api/users/login"
          },
          "response": []
        },
        {
          "name": "login [local]",
          "id": "eff4028e-52cb-46b5-92af-878b861d8d30",
          "protocolProfileBehavior": {
            "disableBodyPruning": true
          },
          "request": {
            "method": "POST",
            "header": [
              {
                "key": "Access-Control-Allow-Origin",
                "value": "*",
                "type": "text",
                "disabled": true
              },
              {
                "key": "Access-Control-Allow-credentials",
                "value": "true",
                "type": "text",
                "disabled": true
              },
              {
                "key": "Authorization",
                "value": "Bearer eyJhbGciOiJIUzI1NiIsInR5cCI6IkpXVCJ9.eyJmcmVzaCI6ZmFsc2UsImlhdCI6MTY5OTIzNjU5NywianRpIjoiMjZiNjcxNTktZmMzYi00MmIyLTg5ZWQtMThlMTI3MGJiZDA1IiwidHlwZSI6ImFjY2VzcyIsInN1YiI6eyJ1c2VybmFtZSI6InVzZXIxMSIsInJvbGUiOiJzYWxlIn0sIm5iZiI6MTY5OTIzNjU5NywiZXhwIjoxNjk5ODQxMzk3fQ.9ZXpi3QM6L-eBIr7hgzBn7P8RFbPsZxuv6-HEaTVEuY",
                "type": "text",
                "disabled": true
              },
              {
                "key": "Content-Type",
                "value": "application/json",
                "type": "text"
              }
            ],
            "body": {
              "mode": "raw",
              "raw": "{\n\"username\":\"user10\",\n\"password\":\"vnknls**kfjsf\"\n}",
              "options": {
                "raw": {
                  "language": "json"
                }
              }
            },
            "url": "http://localhost:5001/api/users/login"
          },
          "response": []
        },
        {
          "name": "create so",
          "id": "4674014c-dcd0-4f98-87f8-4fd9aa8250d3",
          "protocolProfileBehavior": {
            "disableBodyPruning": true
          },
          "request": {
            "method": "POST",
            "header": [
              {
                "key": "Authorization",
                "value": "Bearer eyJ0eXAiOiJKV1QiLCJhbGciOiJIUzI1NiJ9.eyJmcmVzaCI6ZmFsc2UsImlhdCI6MTcwMjA5NzU0OCwianRpIjoiZjFhMGJlODctMmMwMy00Y2U3LWEyOTUtNTc5ZGRmN2E0NzE2IiwidHlwZSI6ImFjY2VzcyIsInN1YiI6eyJ1c2VybmFtZSI6InVzZXI2Iiwicm9sZSI6ImV4ZWN1dGl2ZSJ9LCJuYmYiOjE3MDIwOTc1NDgsImV4cCI6MTcwMjcwMjM0OH0.JWKDlNQPanAtwuZRXfZ5U6U_Yr-obi__Tlyin2w8IFQ",
                "type": "text"
              }
            ],
            "body": {
              "mode": "raw",
              "raw": "{\n   \"so_id\":\"SO-999\",\n   \"so_date\":\"3/11/2023\",\n   \"sale\":\"dev\",\n   \"customer\":\"123\",\n   \"desired_date\":\"4/11/2023\",\n   \"shipment_date\":\"5/11/2023\",\n   \"items\":[\n      {\n         \"amount\":{\n            \"$numberInt\":\"0\"\n         },\n         \"cust_due_date_close\":\"2\",\n         \"cust_due_date_open\":\"1\",\n         \"cust_mat_id\":\"cm-1\",\n         \"description\":\"\",\n         \"id\":\"cs-1\",\n         \"qty\":{\n            \"$numberInt\":\"1\"\n         },\n         \"sale_amount\":\"10\",\n         \"sale_unit_price\":{\n            \"$numberInt\":\"10\"\n         },\n         \"so_currency\":\"thb\",\n         \"status\":\"pay\",\n         \"sup_mat_id\":\"sm-1\",\n         \"unit\":\"ea\"\n      },\n      {\n         \"amount\":{\n            \"$numberInt\":\"0\"\n         },\n         \"cust_due_date_close\":\"2\",\n         \"cust_due_date_open\":\"1\",\n         \"cust_mat_id\":\"cm-2\",\n         \"description\":\"\",\n         \"id\":\"cs-2\",\n         \"qty\":{\n            \"$numberInt\":\"2\"\n         },\n         \"sale_amount\":\"10\",\n         \"sale_unit_price\":{\n            \"$numberInt\":\"5\"\n         },\n         \"so_currency\":\"thb\",\n         \"status\":\"pay\",\n         \"sup_mat_id\":\"sm-2\",\n         \"unit\":\"ea\"\n      }\n   ],\n   \"discount\":{\n      \"$numberInt\":\"0\"\n   },\n   \"status\":\"p\",\n   \"poc_start_date\":\"6/11/2023\",\n   \"company\":\"abc\",\n   \"company_detail\":\"hello\",\n   \"sale_area\":\"bkk\",\n   \"trans_type\":\"truck\",\n   \"remark\":\"\",\n   \"po_cust_id\":\"123\",\n   \"po_cust_date\":\"2/11/2023\",\n   \"cust_cq_id\":\"456\",\n   \"po_cust_pay_term\":\"e\",\n   \"cust_due_date\":\"10/11/2023\",\n   \"full_amt\":\"20\",\n   \"amt_after_discount\":\"\",\n   \"tax\":\"\",\n   \"amt_after_tax\":\"\",\n   \"req_by\":\"dev\",\n   \"req_date\":\"3/11/2023\",\n   \"approve_by\":\"boss\",\n   \"approve_date\":\"4/11/2023\"\n}",
              "options": {
                "raw": {
                  "language": "json"
                }
              }
            },
            "url": {
              "raw": "http://localhost:5000/api/sales_orders",
              "protocol": "http",
              "host": [
                "localhost"
              ],
              "port": "5000",
              "path": [
                "api",
                "sales_orders"
              ],
              "query": [
                {
                  "key": "",
                  "value": "",
                  "type": "text",
                  "disabled": true
                }
              ]
            }
          },
          "response": []
        },
        {
          "name": "create pur",
          "id": "dedc8140-0b94-4c6c-82a0-15c7a709957c",
          "protocolProfileBehavior": {
            "disableBodyPruning": true
          },
          "request": {
            "method": "POST",
            "header": [
              {
                "key": "Authorization",
                "value": "Bearer eyJ0eXAiOiJKV1QiLCJhbGciOiJIUzI1NiJ9.eyJmcmVzaCI6ZmFsc2UsImlhdCI6MTcwMjA5NzU0OCwianRpIjoiZjFhMGJlODctMmMwMy00Y2U3LWEyOTUtNTc5ZGRmN2E0NzE2IiwidHlwZSI6ImFjY2VzcyIsInN1YiI6eyJ1c2VybmFtZSI6InVzZXI2Iiwicm9sZSI6ImV4ZWN1dGl2ZSJ9LCJuYmYiOjE3MDIwOTc1NDgsImV4cCI6MTcwMjcwMjM0OH0.JWKDlNQPanAtwuZRXfZ5U6U_Yr-obi__Tlyin2w8IFQ",
                "type": "text"
              }
            ],
            "body": {
              "mode": "raw",
              "raw": "{\n   \"pur_id\":\"PUR-999\",\n   \"req_date\":\"3/11/2023\",\n   \"req_by\":\"bobo\",\n   \"position\":\"support sale\",\n   \"items\":[\n      {\n         \"so_id\":\"SO-999\",\n         \"id\":\"cs-1\",\n         \"cust_mat_id\":\"cm-1\",\n         \"qty\":{\n            \"$numberInt\":\"1\"\n         },\n         \"unit\":\"ea\",\n         \"sup_mat_id\":\"sm-1\",\n         \"cust_due_date_open\":\"1\",\n         \"cust_due_date_close\":\"2\",\n         \"po_cust_id\":\"123\",\n         \"int_date\":\"3/11/2023\",\n         \"pos_due_date\":\"8/11/2023\",\n         \"sale\":\"dev\",\n         \"so_date\":\"3/11/2023\",\n         \"status\":\"pur\"\n      },\n      {\n         \"so_id\":\"SO-999\",\n         \"id\":\"cs-2\",\n         \"cust_mat_id\":\"cm-2\",\n         \"qty\":{\n            \"$numberInt\":\"2\"\n         },\n         \"unit\":\"ea\",\n         \"sup_mat_id\":\"sm-2\",\n         \"cust_due_date_open\":\"1\",\n         \"cust_due_date_close\":\"2\",\n         \"po_cust_id\":\"123\",\n         \"int_date\":\"4/11/2023\",\n         \"pos_due_date\":\"16/11/2023\",\n         \"sale\":\"dev\",\n         \"so_date\":\"3/11/2023\",\n         \"status\":\"pur\"\n      }\n   ],\n   \"status\":\"pending\",\n   \"pur_date\":\"17/11/2023\",\n   \"deliver_date\":\"7/11/2023\",\n   \"pur_name\":\"buy something for someone\",\n   \"int_date\":\"8/11/2023\",\n   \"rfq_no\":\"123\",\n   \"req_by_dept\":\"sales\",\n   \"remark\":\"pls do it\",\n   \"pos_due_date\":\"8/11/2023\",\n   \"cust_due_date\":\"9/11/2023\",\n   \"approve_by\":\"jojo\",\n   \"approve_date\":\"4/11/2023\",\n   \"pur_ack_by\":\"lufy\",\n   \"pur_ack_date\":\"17/11/2023\"\n}",
              "options": {
                "raw": {
                  "language": "json"
                }
              }
            },
            "url": {
              "raw": "http://localhost:5000/api/purchase_requests",
              "protocol": "http",
              "host": [
                "localhost"
              ],
              "port": "5000",
              "path": [
                "api",
                "purchase_requests"
              ],
              "query": [
                {
                  "key": "",
                  "value": "",
                  "type": "text",
                  "disabled": true
                }
              ]
            }
          },
          "response": []
        },
        {
          "name": "create puo",
          "id": "1fac75fe-7262-47e7-b07a-5dd60409a3e9",
          "protocolProfileBehavior": {
            "disableBodyPruning": true
          },
          "request": {
            "method": "POST",
            "header": [
              {
                "key": "Authorization",
                "value": "Bearer eyJ0eXAiOiJKV1QiLCJhbGciOiJIUzI1NiJ9.eyJmcmVzaCI6ZmFsc2UsImlhdCI6MTcwMjA5NzU0OCwianRpIjoiZjFhMGJlODctMmMwMy00Y2U3LWEyOTUtNTc5ZGRmN2E0NzE2IiwidHlwZSI6ImFjY2VzcyIsInN1YiI6eyJ1c2VybmFtZSI6InVzZXI2Iiwicm9sZSI6ImV4ZWN1dGl2ZSJ9LCJuYmYiOjE3MDIwOTc1NDgsImV4cCI6MTcwMjcwMjM0OH0.JWKDlNQPanAtwuZRXfZ5U6U_Yr-obi__Tlyin2w8IFQ",
                "type": "text"
              }
            ],
            "body": {
              "mode": "raw",
              "raw": "{\n   \"puo_id\":\"PUO-999\",\n   \"puo_date\":\"2023-11-02T17:00:00.000Z\",\n   \"pur_id\":\"PUR-999\",\n   \"pay_date\":\"Invalid NaN\",\n   \"items\":[\n      {\n         \"cust_due_date_close\":\"2\",\n         \"cust_due_date_open\":\"1\",\n         \"cust_mat_id\":\"cm-1\",\n         \"id\":\"cs-1\",\n         \"po_cust_id\":\"123\",\n         \"pos_due_date\":\"8/11/2023\",\n         \"qty\":{\n            \"$numberInt\":\"1\"\n         },\n         \"sale\":\"dev\",\n         \"so_date\":\"3/11/2023\",\n         \"so_id\":\"SO-999\",\n         \"status\":\"puo\",\n         \"sup_mat_id\":\"sm-1\",\n         \"unit\":\"ea\",\n         \"date_on_payment\":\"Invalid NaN\",\n         \"inv_sup_date\":\"Invalid NaN\",\n         \"pay_date\":\"Invalid NaN\",\n         \"oa_due_date\":\"Invalid NaN\"\n      },\n      {\n         \"cust_due_date_close\":\"2\",\n         \"cust_due_date_open\":\"1\",\n         \"cust_mat_id\":\"cm-2\",\n         \"id\":\"cs-2\",\n         \"po_cust_id\":\"123\",\n         \"pos_due_date\":\"16/11/2023\",\n         \"qty\":{\n            \"$numberInt\":\"2\"\n         },\n         \"sale\":\"dev\",\n         \"so_date\":\"3/11/2023\",\n         \"so_id\":\"SO-999\",\n         \"status\":\"puo\",\n         \"sup_mat_id\":\"sm-2\",\n         \"unit\":\"ea\",\n         \"date_on_payment\":\"Invalid NaN\",\n         \"inv_sup_date\":\"Invalid NaN\",\n         \"pay_date\":\"Invalid NaN\",\n         \"oa_due_date\":\"Invalid NaN\"\n      }\n   ],\n   \"status\":\"\",\n   \"pur_req_by_date\":\"17/11/2023\",\n   \"pur_req_by_name\":\"bobo\",\n   \"pay_currency\":\"THB\",\n   \"est_pay_date\":\"Invalid NaN\",\n   \"remark\":\"-\",\n   \"req_by\":\"test-1\",\n   \"req_date\":\"Invalid NaN\",\n   \"req_by_position\":\"-\",\n   \"approve_by\":\"test-2\",\n   \"approve_date\":\"Invalid NaN\",\n   \"puo_ack_by\":\"test-4\",\n   \"puo_ack_date\":\"Invalid NaN\"\n}",
              "options": {
                "raw": {
                  "language": "json"
                }
              }
            },
            "url": {
              "raw": "http://localhost:5000/api/purchase_orders",
              "protocol": "http",
              "host": [
                "localhost"
              ],
              "port": "5000",
              "path": [
                "api",
                "purchase_orders"
              ],
              "query": [
                {
                  "key": "",
                  "value": "",
                  "type": "text",
                  "disabled": true
                }
              ]
            }
          },
          "response": []
        },
        {
          "name": "create pay",
          "id": "8e41124e-8259-4a36-9dbd-96ed143fa634",
          "protocolProfileBehavior": {
            "disableBodyPruning": true
          },
          "request": {
            "method": "POST",
            "header": [
              {
                "key": "Authorization",
                "value": "Bearer eyJ0eXAiOiJKV1QiLCJhbGciOiJIUzI1NiJ9.eyJmcmVzaCI6ZmFsc2UsImlhdCI6MTcwMjA5NzU0OCwianRpIjoiZjFhMGJlODctMmMwMy00Y2U3LWEyOTUtNTc5ZGRmN2E0NzE2IiwidHlwZSI6ImFjY2VzcyIsInN1YiI6eyJ1c2VybmFtZSI6InVzZXI2Iiwicm9sZSI6ImV4ZWN1dGl2ZSJ9LCJuYmYiOjE3MDIwOTc1NDgsImV4cCI6MTcwMjcwMjM0OH0.JWKDlNQPanAtwuZRXfZ5U6U_Yr-obi__Tlyin2w8IFQ",
                "type": "text"
              }
            ],
            "body": {
              "mode": "raw",
              "raw": "{\n   \"pay_id\":\"PAY-999\",\n   \"puo_id\":\"PUO-999\",\n   \"pay_date\":\"4/11/2023\",\n   \"items\":[\n      {\n         \"cust_mat_id\":\"cm-1\",\n         \"date_on_payment\":\"Invalid NaN\",\n         \"id\":\"cs-1\",\n         \"inv_sup_date\":\"Invalid NaN\",\n         \"oa_due_date\":\"Invalid NaN\",\n         \"pay_date\":\"2/11/2023\",\n         \"po_cust_id\":\"123\",\n         \"pos_due_date\":\"8/11/2023\",\n         \"qty\":{\n            \"$numberInt\":\"1\"\n         },\n         \"sale\":\"dev\",\n         \"so_date\":\"3/11/2023\",\n         \"so_id\":\"SO-999\",\n         \"status\":\"pay\",\n         \"sup_mat_id\":\"sm-1\",\n         \"unit\":\"ea\"\n      },\n      {\n         \"cust_mat_id\":\"cm-2\",\n         \"date_on_payment\":\"Invalid NaN\",\n         \"id\":\"cs-2\",\n         \"inv_sup_date\":\"Invalid NaN\",\n         \"oa_due_date\":\"Invalid NaN\",\n         \"pay_date\":\"3/11/2023\",\n         \"po_cust_id\":\"123\",\n         \"pos_due_date\":\"16/11/2023\",\n         \"qty\":{\n            \"$numberInt\":\"2\"\n         },\n         \"sale\":\"dev\",\n         \"so_date\":\"3/11/2023\",\n         \"so_id\":\"SO-999\",\n         \"status\":\"pay\",\n         \"sup_mat_id\":\"sm-2\",\n         \"unit\":\"ea\"\n      }\n   ],\n   \"status\":\"pending\",\n   \"pur_id\":\"PUR-999\",\n   \"pur_req_by_date\":\"17/11/2023\",\n   \"pur_req_by_name\":\"bobo\",\n   \"puo_req_by_date\":\"Invalid NaN\",\n   \"puo_req_by_name\":\"test-1\",\n   \"remark\":\"-\",\n   \"est_pay_date\":\"11/11/2023\",\n   \"req_date\":\"Invalid NaN\",\n   \"req_by_position\":\"-\",\n   \"req_by\":\"test-333\",\n   \"approve_by\":\"test-1\",\n   \"approve_date\":\"4/11/2023\",\n   \"pay_ack_by\":\"test-3\",\n   \"pay_ack_date\":\"4/11/2023\"\n}",
              "options": {
                "raw": {
                  "language": "json"
                }
              }
            },
            "url": {
              "raw": "http://localhost:5000/api/payments",
              "protocol": "http",
              "host": [
                "localhost"
              ],
              "port": "5000",
              "path": [
                "api",
                "payments"
              ],
              "query": [
                {
                  "key": "",
                  "value": "",
                  "type": "text",
                  "disabled": true
                }
              ]
            }
          },
          "response": []
        },
        {
          "name": "create ship",
          "id": "72e9e49f-b1e4-42da-8c04-56cbf1235be7",
          "protocolProfileBehavior": {
            "disableBodyPruning": true
          },
          "request": {
            "method": "POST",
            "header": [
              {
                "key": "Authorization",
                "value": "Bearer eyJ0eXAiOiJKV1QiLCJhbGciOiJIUzI1NiJ9.eyJmcmVzaCI6ZmFsc2UsImlhdCI6MTcwMjA5NzU0OCwianRpIjoiZjFhMGJlODctMmMwMy00Y2U3LWEyOTUtNTc5ZGRmN2E0NzE2IiwidHlwZSI6ImFjY2VzcyIsInN1YiI6eyJ1c2VybmFtZSI6InVzZXI2Iiwicm9sZSI6ImV4ZWN1dGl2ZSJ9LCJuYmYiOjE3MDIwOTc1NDgsImV4cCI6MTcwMjcwMjM0OH0.JWKDlNQPanAtwuZRXfZ5U6U_Yr-obi__Tlyin2w8IFQ",
                "type": "text"
              }
            ],
            "body": {
              "mode": "raw",
              "raw": "{\n   \"ship_id\":\"SHIP-999\",\n   \"puo_id\":\"PUO-999\",\n   \"ship_date\":\"Invalid NaN\",\n   \"pay_date\":\"Invalid NaN\",\n   \"items\":[\n      {\n         \"cust_mat_id\":\"cm-1\",\n         \"id\":\"cs-1\",\n         \"oa_due_date\":\"Invalid NaN\",\n         \"pay_date\":\"Invalid NaN\",\n         \"po_cust_id\":\"123\",\n         \"pos_due_date\":\"8/11/2023\",\n         \"qty\":{\n            \"$numberInt\":\"1\"\n         },\n         \"sale\":\"dev\",\n         \"so_date\":\"3/11/2023\",\n         \"so_id\":\"SO-999\",\n         \"status\":\"ship\",\n         \"sup_mat_id\":\"sm-1\",\n         \"unit\":\"ea\",\n         \"act_trans_date\":\"25/11/2023\",\n         \"date_on_payment\":\"Invalid NaN\",\n         \"clear_date\":\"Invalid NaN\",\n         \"pick_up_date\":\"Invalid NaN\"\n      },\n      {\n         \"cust_mat_id\":\"cm-2\",\n         \"id\":\"cs-2\",\n         \"oa_due_date\":\"10/11/2023\",\n         \"pay_date\":\"Invalid NaN\",\n         \"po_cust_id\":\"123\",\n         \"pos_due_date\":\"16/11/2023\",\n         \"qty\":{\n            \"$numberInt\":\"2\"\n         },\n         \"sale\":\"dev\",\n         \"so_date\":\"3/11/2023\",\n         \"so_id\":\"SO-999\",\n         \"status\":\"ship\",\n         \"sup_mat_id\":\"sm-2\",\n         \"unit\":\"ea\",\n         \"act_trans_date\":\"Invalid NaN\",\n         \"date_on_payment\":\"Invalid NaN\",\n         \"clear_date\":\"Invalid NaN\",\n         \"pick_up_date\":\"Invalid NaN\"\n      }\n   ],\n   \"status\":\"pending\",\n   \"pur_id\":\"PUR-999\",\n   \"pur_req_by_date\":\"17/11/2023\",\n   \"pur_req_by_name\":\"bobo\",\n   \"puo_req_by_date\":\"Invalid NaN\",\n   \"puo_req_by_name\":\"test-1\",\n   \"remark\":\"\",\n   \"req_by\":\"test-1\",\n   \"req_date\":\"4/11/2023\",\n   \"req_by_position\":\"-\",\n   \"approve_by\":\"test-2\",\n   \"approve_date\":\"4/11/2023\",\n   \"ship_ack_by\":\"test-3\",\n   \"ship_ack_date\":\"4/11/2023\"\n}",
              "options": {
                "raw": {
                  "language": "json"
                }
              }
            },
            "url": {
              "raw": "http://localhost:5000/api/shipments",
              "protocol": "http",
              "host": [
                "localhost"
              ],
              "port": "5000",
              "path": [
                "api",
                "shipments"
              ],
              "query": [
                {
                  "key": "",
                  "value": "",
                  "type": "text",
                  "disabled": true
                }
              ]
            }
          },
          "response": []
        },
        {
          "name": "create rec",
          "id": "364d80e3-147d-4725-990b-d28ea7afcecd",
          "protocolProfileBehavior": {
            "disableBodyPruning": true
          },
          "request": {
            "method": "POST",
            "header": [
              {
                "key": "Authorization",
                "value": "Bearer eyJ0eXAiOiJKV1QiLCJhbGciOiJIUzI1NiJ9.eyJmcmVzaCI6ZmFsc2UsImlhdCI6MTcwMjA5NzU0OCwianRpIjoiZjFhMGJlODctMmMwMy00Y2U3LWEyOTUtNTc5ZGRmN2E0NzE2IiwidHlwZSI6ImFjY2VzcyIsInN1YiI6eyJ1c2VybmFtZSI6InVzZXI2Iiwicm9sZSI6ImV4ZWN1dGl2ZSJ9LCJuYmYiOjE3MDIwOTc1NDgsImV4cCI6MTcwMjcwMjM0OH0.JWKDlNQPanAtwuZRXfZ5U6U_Yr-obi__Tlyin2w8IFQ",
                "type": "text"
              }
            ],
            "body": {
              "mode": "raw",
              "raw": "{\n   \"rec_id\":\"REC-999\",\n   \"puo_id\":\"PUO-999\",\n   \"poc_id\":null,\n   \"rec_date\":\"4/11/2023\",\n   \"items\":[\n      {\n         \"cust_mat_id\":\"cm-1\",\n         \"id\":\"cs-1\",\n         \"oa_due_date\":\"Invalid NaN\",\n         \"pay_date\":\"Invalid NaN\",\n         \"po_cust_id\":\"123\",\n         \"pos_due_date\":\"8/11/2023\",\n         \"qty\":{\n            \"$numberInt\":\"1\"\n         },\n         \"sale\":\"dev\",\n         \"so_date\":\"3/11/2023\",\n         \"so_id\":\"SO-999\",\n         \"status\":\"rec\",\n         \"sup_mat_id\":\"sm-1\",\n         \"unit\":\"ea\",\n         \"inv_cust_date\":\"Invalid NaN\",\n         \"cust_payment_date\":\"Invalid NaN\",\n         \"act_trans_date\":\"Invalid NaN\",\n         \"act_arr_date\":\"Invalid NaN\",\n         \"date_on_receive\":\"Invalid NaN\"\n      },\n      {\n         \"cust_mat_id\":\"cm-2\",\n         \"id\":\"cs-2\",\n         \"oa_due_date\":\"Invalid NaN\",\n         \"pay_date\":\"Invalid NaN\",\n         \"po_cust_id\":\"123\",\n         \"pos_due_date\":\"16/11/2023\",\n         \"qty\":{\n            \"$numberInt\":\"2\"\n         },\n         \"sale\":\"dev\",\n         \"so_date\":\"3/11/2023\",\n         \"so_id\":\"SO-999\",\n         \"status\":\"rec\",\n         \"sup_mat_id\":\"sm-2\",\n         \"unit\":\"ea\",\n         \"inv_cust_date\":\"Invalid NaN\",\n         \"cust_payment_date\":\"Invalid NaN\",\n         \"act_trans_date\":\"Invalid NaN\",\n         \"act_arr_date\":\"Invalid NaN\",\n         \"date_on_receive\":\"Invalid NaN\"\n      }\n   ],\n   \"status\":\"pending\",\n   \"pur_id\":\"PUR-999\",\n   \"pur_req_by_date\":\"17/11/2023\",\n   \"pur_req_by_name\":\"bobo\",\n   \"puo_req_by_date\":\"Invalid NaN\",\n   \"puo_req_by_name\":\"test-1\",\n   \"remark\":\"-\",\n   \"req_by\":\"test-1\",\n   \"req_date\":\"4/11/2023\",\n   \"req_by_position\":\"-\",\n   \"approve_by\":\"test-2\",\n   \"approve_date\":\"4/11/2023\",\n   \"rec_ack_by\":\"test-3\",\n   \"rec_ack_date\":\"4/11/2023\"\n}",
              "options": {
                "raw": {
                  "language": "json"
                }
              }
            },
            "url": {
              "raw": "http://localhost:5000/api/receives",
              "protocol": "http",
              "host": [
                "localhost"
              ],
              "port": "5000",
              "path": [
                "api",
                "receives"
              ],
              "query": [
                {
                  "key": "",
                  "value": "",
                  "type": "text",
                  "disabled": true
                }
              ]
            }
          },
          "response": []
        },
        {
          "name": "get pur [local]",
          "id": "3f7bfa6c-3e9d-4d46-b939-c1c57a739ad5",
          "protocolProfileBehavior": {
            "disableBodyPruning": true
          },
          "request": {
            "method": "GET",
            "header": [
              {
                "key": "Authorization",
                "value": "Bearer eyJ0eXAiOiJKV1QiLCJhbGciOiJIUzI1NiJ9.eyJmcmVzaCI6ZmFsc2UsImlhdCI6MTcwNjc5MDg4NSwianRpIjoiNzE5ZWI5ZmUtY2Q4Yy00NDE2LWE0ODktNDY4NTRmNDY0YzhlIiwidHlwZSI6ImFjY2VzcyIsInN1YiI6eyJ1c2VybmFtZSI6InVzZXIxMCIsInJvbGUiOiJleGVjdXRpdmUifSwibmJmIjoxNzA2NzkwODg1LCJleHAiOjE3MDczOTU2ODV9.r4-4G00Wb_bnxPZvVqYhHVHL755Wz7L1mU7nZZAqSMI",
                "type": "text"
              }
            ],
            "url": "http://localhost:5001/api/purchase_requests"
          },
          "response": []
        }
      ],
      "id": "bf027719-86bf-42ed-bf8d-e9da623ebfe8"
    },
    {
      "name": "basket-completion",
      "item": [
        {
          "name": "search-many [local]",
          "id": "80dcb187-0cb5-4377-8668-de09eb4c52a3",
          "protocolProfileBehavior": {
            "disableBodyPruning": true
          },
          "request": {
            "method": "GET",
            "header": [
              {
                "key": "queries",
                "value": "[\"0200492\", \"4400377\", \"0502739\"], [\"0500987\"], [\"8916449\"], [], [\"4400377\"], [], [\"\"]",
                "type": "text"
              },
              {
                "key": "x_user_id",
                "value": "123456",
                "type": "text"
              },
              {
                "key": "queries",
                "value": "[\"0200492\", \"4400377\", \"0502739\"]",
                "type": "text",
                "disabled": true
              },
              {
                "key": "queries",
                "value": "\"invalid_query_type\"",
                "type": "text",
                "disabled": true
              },
              {
                "key": "queries",
                "value": "",
                "type": "text",
                "disabled": true
              }
            ],
            "url": "localhost:8000/process"
          },
          "response": [
            {
              "id": "f8470763-0e6d-44be-bd8e-e460c573ab83",
              "name": "search-many [local]",
              "originalRequest": {
                "method": "GET",
                "header": [
                  {
                    "key": "queries",
                    "value": "[\"0200492\", \"4400377\", \"0502739\"], [\"0500987\"], [\"8916449\"], [], [\"4400377\"], [], [\"\"]",
                    "type": "text"
                  },
                  {
                    "key": "x_user_id",
                    "value": "123456",
                    "type": "text"
                  },
                  {
                    "key": "queries",
                    "value": "[\"0200492\", \"4400377\", \"0502739\"]",
                    "type": "text",
                    "disabled": true
                  },
                  {
                    "key": "queries",
                    "value": "\"invalid_query_type\"",
                    "type": "text",
                    "disabled": true
                  },
                  {
                    "key": "queries",
                    "value": "",
                    "type": "text",
                    "disabled": true
                  }
                ],
                "url": "localhost:8000/process"
              },
              "_postman_previewlanguage": null,
              "header": null,
              "cookie": [],
              "responseTime": null,
              "body": "{\n    \"results\": [\n        [\n            \"5002795\",\n            \"8500289\",\n            \"2000918\",\n            \"2861219\",\n            \"3201180\",\n            \"5400095\",\n            \"6200056\",\n            \"0500098\",\n            \"8915468\",\n            \"0300020\"\n        ],\n        [\n            \"3402396\",\n            \"3920782\",\n            \"0200249\",\n            \"4104017\",\n            \"2000939\",\n            \"1401890\",\n            \"3000490\",\n            \"1800114\",\n            \"3802493\",\n            \"4100097\"\n        ],\n        [],\n        [],\n        [\n            \"1600011\",\n            \"3000116\",\n            \"5001521\",\n            \"8921598\",\n            \"0502667\",\n            \"0300145\",\n            \"0501466\",\n            \"0200046\",\n            \"4000200\",\n            \"6001621\"\n        ],\n        [],\n        []\n    ]\n}"
            }
          ]
        },
        {
          "name": "search-many [dev]",
          "id": "ad973e25-9279-4c6a-9949-97503f5718fb",
          "protocolProfileBehavior": {
            "disableBodyPruning": true
          },
          "request": {
            "auth": {
              "type": "basic",
              "basic": {
                "password": "4omzVXeuIkTtEhi",
                "username": "basket-user1"
              }
            },
            "method": "GET",
            "header": [
              {
                "key": "queries",
                "value": "[\"0200492\", \"4400377\", \"0502739\"], [\"0500987\"], [\"8916449\"], [], [\"4400377\"], [], [\"\"]",
                "type": "text"
              },
              {
                "key": "x_user_id",
                "value": "123456",
                "type": "text"
              },
              {
                "key": "queries",
                "value": "[\"0200492\", \"4400377\", \"0502739\"]",
                "type": "text",
                "disabled": true
              },
              {
                "key": "queries",
                "value": "\"invalid_query_type\"",
                "type": "text",
                "disabled": true
              },
              {
                "key": "queries",
                "value": "",
                "type": "text",
                "disabled": true
              }
            ],
            "url": "https://basket-completion-kmotl-stg.7-11.io/api/v1/process"
          },
          "response": []
        }
      ],
      "id": "fbe55bc3-0955-4dd0-b6ea-a3fff666c19c"
    },
    {
      "name": "health-check",
      "id": "dfc5c7fa-b2d5-48bb-bc50-e23eabecee21",
      "protocolProfileBehavior": {
        "disableBodyPruning": true
      },
      "request": {
        "method": "GET",
        "header": [],
        "url": "http://hello-ecs-lb-1524257224.us-east-1.elb.amazonaws.com/yoyo"
      },
      "response": []
    },
    {
      "name": "health-check-pboy",
      "id": "273455a2-afd0-4a9d-96ec-4f2c8a83022d",
      "protocolProfileBehavior": {
        "disableBodyPruning": true
      },
      "request": {
        "method": "GET",
        "header": [],
        "url": "http://internal-poc-ecs-que-alb-1440066724.ap-southeast-1.elb.amazonaws.com/healthz"
      },
      "response": []
    },
    {
      "name": "rust-rocket",
      "id": "837a80cc-47d6-45ef-9b3a-a2e75848a174",
      "protocolProfileBehavior": {
        "disableBodyPruning": true
      },
      "request": {
        "method": "POST",
        "header": [
          {
            "key": "",
            "value": "",
            "type": "text"
          }
        ],
        "body": {
          "mode": "raw",
          "raw": "{\n    \"title\": \"gimmy\",\n    \"body\": \"omg\"\n}",
          "options": {
            "raw": {
              "language": "json"
            }
          }
        },
        "url": "http://localhost:8000/post"
      },
      "response": []
    },
    {
      "name": "line-noti",
      "id": "e5901fd2-aab3-4ab8-8657-ebe3ba2fbc41",
      "protocolProfileBehavior": {
        "disableBodyPruning": true
      },
      "request": {
        "method": "POST",
        "header": [
          {
            "key": "Content-Type",
            "value": "application/x-www-form-urlencoded",
            "type": "text"
          },
          {
            "key": "Authorization",
            "value": "Bearer I3mEK3lDzC4DhbjJNTyF3QkwsYqM1ni541Q5SRBQsDu",
            "type": "text"
          }
        ],
        "body": {
          "mode": "urlencoded",
          "urlencoded": [
            {
              "key": "message",
              "value": "พี่ๆอย่าลืมกรอกข้อมูลบน google docs ให้ผมคิวน้าา (sweating smiley face)",
              "type": "text"
            }
          ]
        },
        "url": "https://notify-api.line.me/api/notify"
      },
      "response": []
    },
    {
      "name": "New Request",
      "id": "f1bf830d-c9e8-495b-97b0-ce946da40dec",
      "protocolProfileBehavior": {
        "disableBodyPruning": true
      },
      "request": {
        "method": "PUT",
        "header": [
          {
            "key": "Content-Type",
            "value": "application/json",
            "type": "text"
          }
        ],
        "body": {
          "mode": "raw",
          "raw": "{\n    \"title\": \"cocacola\",\n    \"author\": \"jj\"\n}",
          "options": {
            "raw": {
              "language": "json"
            }
          }
        },
        "url": "http://127.0.0.1:3000/books/9"
      },
      "response": []
    },
    {
      "name": "New Request Copy",
      "id": "d3c3a7a9-ad53-462a-91fc-6c327920c2ef",
      "protocolProfileBehavior": {
        "disableBodyPruning": true
      },
      "request": {
        "method": "POST",
        "header": [
          {
            "key": "Content-Type",
            "value": "application/json",
            "type": "text"
          }
        ],
        "body": {
          "mode": "raw",
          "raw": "{\n    \"title\": \"jira d-luffy\",\n    \"author\": \"jim\",\n    \"unstructured_1\": {\n        \"any_key_1\": \"xxx\",\n        \"any_key_2\": \"xxx\",\n        \"any_key_3\": \"xxx\"\n    },\n    \"unstructured_2\": 555,\n    \"unstructured_3\": \"jimmy\"\n}",
          "options": {
            "raw": {
              "language": "json"
            }
          }
        },
        "url": "http://127.0.0.1:3000/books"
      },
      "response": []
    },
    {
      "name": "hello-sv-js",
      "id": "2d7b8e61-e74a-4bba-a812-d92005b8e583",
      "protocolProfileBehavior": {
        "disableBodyPruning": true
      },
      "request": {
        "method": "GET",
        "header": [],
        "url": "http://localhost:5173/hello"
      },
      "response": []
    },
    {
      "name": "New Request Copy 2",
      "id": "46b1e82f-47c4-4822-ad8d-9d8f25bba093",
      "protocolProfileBehavior": {
        "disableBodyPruning": true
      },
      "request": {
        "auth": {
          "type": "basic",
          "basic": {
            "password": "IUVbrApwTb",
            "username": "inf-user1"
          }
        },
        "method": "GET",
        "header": [
          {
            "key": "Content-Type",
            "value": "application/json",
            "type": "text"
          },
          {
            "key": "Authorization",
            "value": "Basic aW5mLXVzZXIxOklVVmJyQXB3VGI=",
            "type": "text"
          }
        ],
        "url": "https://inference-api-dev.7-11.io/api/v1/"
      },
      "response": []
    },
    {
      "name": "semantic-search-inference",
      "id": "4ccd83c2-f97a-4078-be31-a8fba6265526",
      "protocolProfileBehavior": {
        "disableBodyPruning": true
      },
      "request": {
        "auth": {
          "type": "basic",
          "basic": {
            "password": "IUVbrApwTb",
            "username": "inf-user1"
          }
        },
        "method": "POST",
        "header": [
          {
            "key": "Content-Type",
            "value": "application/json",
            "type": "text"
          },
          {
            "key": "Authorization",
            "value": "Basic aW5mLXVzZXIxOklVVmJyQXB3VGI=",
            "type": "text"
          },
          {
            "key": "data",
            "value": "[]",
            "type": "text"
          }
        ],
        "body": {
          "mode": "raw",
          "raw": "{\"sentences\": [\"cat\", \"dog\"]}",
          "options": {
            "raw": {
              "language": "json"
            }
          }
        },
        "url": "https://inference-api-dev.7-11.io/api/v1/get_embeddings"
      },
      "response": []
    },
    {
      "name": "New Request Copy 3",
      "id": "971e675c-d2a9-43f1-975c-14ca9352845e",
      "protocolProfileBehavior": {
        "disableBodyPruning": true
      },
      "request": {
        "auth": {
          "type": "basic",
          "basic": {
            "password": "IUVbrApwTb",
            "username": "inf-user1"
          }
        },
        "method": "POST",
        "header": [
          {
            "key": "Content-Type",
            "value": "application/json",
            "type": "text"
          },
          {
            "key": "Authorization",
            "value": "Basic aW5mLXVzZXIxOklVVmJyQXB3VGI=",
            "type": "text"
          },
          {
            "key": "data",
            "value": "[]",
            "type": "text"
          }
        ],
        "body": {
          "mode": "raw",
          "raw": "{\"sentences\": [\"cat\"]}",
          "options": {
            "raw": {
              "language": "json"
            }
          }
        },
        "url": "http://localhost:5500/api/v1/get_embeddings"
      },
      "response": []
    }
  ]
}